{
    "code": 200,
    "msg": "success",
    "data": {
        "total": 100,
        "pageNum": 1,
        "pageSize": 10,
        "size": 2,
        "startRow": 1,
        "endRow": 2,
        "pages": 3,
        "prePage": 0,
        "nextPage": 2,
        "isFirstPage": true,
        "isLastPage": false,
        "hasPreviousPage": false,
        "hasNextPage": true,
        "navigatePages": 8,
        "navigatepageNums": [
            1,
            2,
            3
        ],
        "navigateFirstPage": 1,
        "navigateLastPage": 3,
        "list": [
            {
                "userId": 1,
                "username": "小明",
                "email": "8472864798@qq.com",
                "phone": "84972974274",
                "name": "小明",
                "gender": "男",
                "birthday": "1280.11.23",
                "role": "akj",
                "image":"afji",
                "password":"密码"
            },
            {
                "userId": 2,
                "username": "小明",
                "email": "8472864798@qq.com",
                "phone": "849729742749",
                "name": "小明",
                "gender": "男",
                "birthday": "1280.4.2",
                "role": "akj",
                "image":"afji"
            },
            {
                "userId": 3,
                "username": "小明",
                "email": "8472864798@qq.com",
                "phone": 849729742749,
                "name": "小明",
                "gender": "男",
                "birthday": "1280.4.2",
                "role": "akj",
                "image":"afji"
            },
            {
                "userId": 1,
                "username": "小明",
                "email": "8472864798@qq.com",
                "phone": 849729742749,
                "name": "小明",
                "gender": "男",
                "birthday": "1280.4.2",
                "role": "akj",
                "image":"afji"
            },
            {
                "userId": 1,
                "username": "小明",
                "email": "8472864798@qq.com",
                "phone": 849729742749,
                "name": "小明",
                "gender": "男",
                "birthday": "1280.4.2",
                "role": "akj",
                "image":"afji"
            },
            {
                "userId": 1,
                "username": "小明",
                "email": "8472864798@qq.com",
                "phone": 849729742749,
                "name": "小明",
                "gender": "男",
                "birthday": "1280.4.2",
                "role": "akj",
                "image":"afji"
            }
        ]
    }
}